{
    "bootstrap-4-web.bundle.js": "/assets/frappe/dist/js/bootstrap-4-web.bundle.7VCXKZMB.js",
    "controls.bundle.js": "/assets/frappe/dist/js/controls.bundle.MO3TX6AS.js",
    "data_import_tools.bundle.js": "/assets/frappe/dist/js/data_import_tools.bundle.HMQMLIYY.js",
    "desk.bundle.js": "/assets/frappe/dist/js/desk.bundle.RQ7BX2XG.js",
    "dialog.bundle.js": "/assets/frappe/dist/js/dialog.bundle.FZ6HPFXM.js",
    "form.bundle.js": "/assets/frappe/dist/js/form.bundle.QP55XHHQ.js",
    "frappe-web.bundle.js": "/assets/frappe/dist/js/frappe-web.bundle.WAECCZDB.js",
    "libs.bundle.js": "/assets/frappe/dist/js/libs.bundle.6XLVBACU.js",
    "list.bundle.js": "/assets/frappe/dist/js/list.bundle.OXJ57ELB.js",
    "logtypes.bundle.js": "/assets/frappe/dist/js/logtypes.bundle.6XKFPWVQ.js",
    "onboarding_tours.bundle.js": "/assets/frappe/dist/js/onboarding_tours.bundle.LGQM5PCF.js",
    "recorder.bundle.js": "/assets/frappe/dist/js/recorder.bundle.OINNNE2C.js",
    "report.bundle.js": "/assets/frappe/dist/js/report.bundle.TTVFVK6T.js",
    "telemetry.bundle.js": "/assets/frappe/dist/js/telemetry.bundle.D5NSGVQ2.js",
    "user_profile_controller.bundle.js": "/assets/frappe/dist/js/user_profile_controller.bundle.X7TOLIDE.js",
    "video_player.bundle.js": "/assets/frappe/dist/js/video_player.bundle.5NDHKKAB.js",
    "web_form.bundle.js": "/assets/frappe/dist/js/web_form.bundle.W6FORU5U.js",
    "print_format_builder.bundle.js": "/assets/frappe/dist/js/print_format_builder.bundle.NFXMOFMP.js",
    "build_events.bundle.js": "/assets/frappe/dist/js/build_events.bundle.BEO64C2K.js",
    "kanban_board.bundle.js": "/assets/frappe/dist/js/kanban_board.bundle.MTIU3SCA.js",
    "desk.bundle.css": "/assets/frappe/dist/css/desk.bundle.VR27GKIR.css",
    "email.bundle.css": "/assets/frappe/dist/css/email.bundle.RXKHZ2RF.css",
    "login.bundle.css": "/assets/frappe/dist/css/login.bundle.UEPY4Y24.css",
    "print.bundle.css": "/assets/frappe/dist/css/print.bundle.ECR3NWY3.css",
    "print_format.bundle.css": "/assets/frappe/dist/css/print_format.bundle.UQU5Z3WV.css",
    "report.bundle.css": "/assets/frappe/dist/css/report.bundle.6AJ5XGQM.css",
    "web_form.bundle.css": "/assets/frappe/dist/css/web_form.bundle.7TRXUP5E.css",
    "website.bundle.css": "/assets/frappe/dist/css/website.bundle.OJEXMQ3M.css",
    "bank-reconciliation-tool.bundle.js": "/assets/erpnext/dist/js/bank-reconciliation-tool.bundle.S5KG7REL.js",
    "erpnext-web.bundle.js": "/assets/erpnext/dist/js/erpnext-web.bundle.5YR4TMQD.js",
    "erpnext.bundle.js": "/assets/erpnext/dist/js/erpnext.bundle.GIH2N47K.js",
    "hierarchy-chart.bundle.js": "/assets/erpnext/dist/js/hierarchy-chart.bundle.FKNIUPJW.js",
    "item-dashboard.bundle.js": "/assets/erpnext/dist/js/item-dashboard.bundle.WRE5KDJ3.js",
    "point-of-sale.bundle.js": "/assets/erpnext/dist/js/point-of-sale.bundle.HTINNEWW.js",
    "erpnext-web.bundle.css": "/assets/erpnext/dist/css/erpnext-web.bundle.UZC5AO2S.css",
    "erpnext.bundle.css": "/assets/erpnext/dist/css/erpnext.bundle.3J3JVJ7G.css",
    "erpnext_email.bundle.css": "/assets/erpnext/dist/css/erpnext_email.bundle.HAMW56XB.css"
}