2023-08-22 15:21:43,106 DEBUG cd my-erpnext-bench && python3 -m venv env
2023-08-22 15:21:45,796 DEBUG cd my-erpnext-bench && /home/prateek/my-erpnext-bench/env/bin/python -m pip install --quiet --upgrade pip
2023-08-22 15:21:47,589 DEBUG cd my-erpnext-bench && /home/prateek/my-erpnext-bench/env/bin/python -m pip install --quiet wheel
2023-08-22 15:21:50,707 LOG Getting frappe
2023-08-22 15:21:50,708 DEBUG cd my-erpnext-bench/apps && git clone https://github.com/frappe/frappe.git --branch version-14 --depth 1 --origin upstream
2023-08-22 15:21:56,293 LOG Installing frappe
2023-08-22 15:21:56,294 DEBUG cd /home/prateek/my-erpnext-bench && /home/prateek/my-erpnext-bench/env/bin/python -m pip install --quiet --upgrade -e /home/prateek/my-erpnext-bench/apps/frappe 
2023-08-22 15:23:04,822 DEBUG cd /home/prateek/my-erpnext-bench/apps/frappe && yarn install
2023-08-22 15:23:39,018 WARNING restart failed: Couldn't find supervisorctl in PATH
2023-08-22 15:23:39,019 DEBUG cd my-erpnext-bench && bench build
2023-08-22 15:23:39,110 INFO /home/prateek/.local/bin/bench build
2023-08-22 15:23:55,716 LOG setting up backups
2023-08-22 15:23:55,742 LOG backups were set up
2023-08-22 15:23:55,742 INFO Bench my-erpnext-bench initialized
2023-08-22 15:24:07,004 INFO /home/prateek/.local/bin/bench new-site my-site.local
2023-08-22 15:24:48,505 INFO /home/prateek/.local/bin/bench new-site my-site.local
2023-08-22 15:25:13,897 INFO /home/prateek/.local/bin/bench new-site library.test
2023-08-22 15:29:25,921 INFO /home/prateek/.local/bin/bench new-site my-site.local
2023-08-22 15:30:38,538 INFO /home/prateek/.local/bin/bench new-site my-site.local
2023-08-22 15:36:31,171 INFO /home/prateek/.local/bin/bench mariadb
2023-08-22 15:38:14,871 INFO /home/prateek/.local/bin/bench new-site my-site.local
2023-08-22 15:39:26,944 INFO /home/prateek/.local/bin/bench get-app erpnext --branch version-14
2023-08-22 15:39:27,632 LOG Getting erpnext
2023-08-22 15:39:27,633 DEBUG cd ./apps && git clone https://github.com/frappe/erpnext.git --branch version-14 --depth 1 --origin upstream
2023-08-22 15:39:36,152 LOG Installing erpnext
2023-08-22 15:39:36,266 DEBUG cd /home/prateek/my-erpnext-bench && /home/prateek/my-erpnext-bench/env/bin/python -m pip install --quiet --upgrade -e /home/prateek/my-erpnext-bench/apps/erpnext 
2023-08-22 15:40:48,364 DEBUG cd /home/prateek/my-erpnext-bench/apps/erpnext && yarn install
2023-08-22 15:40:50,013 DEBUG bench build --app erpnext
2023-08-22 15:40:50,109 INFO /home/prateek/.local/bin/bench build --app erpnext
2023-08-22 15:40:55,757 WARNING restart failed: Couldn't find supervisorctl in PATH
2023-08-22 15:41:19,371 INFO /home/prateek/.local/bin/bench --site my-site.local install-app erpnext
2023-08-22 15:43:52,019 INFO /home/prateek/.local/bin/bench use my-site.local
2023-08-22 15:44:03,641 INFO /home/prateek/.local/bin/bench start
2023-08-22 15:44:03,948 INFO /home/prateek/.local/bin/bench serve --port 8001
2023-08-22 15:44:03,967 INFO /home/prateek/.local/bin/bench worker
2023-08-22 15:44:04,017 INFO /home/prateek/.local/bin/bench schedule
2023-08-22 15:44:04,031 INFO /home/prateek/.local/bin/bench watch
2023-08-22 16:27:12,734 INFO /home/prateek/.local/bin/bench start
2023-08-22 16:27:35,206 INFO /home/prateek/.local/bin/bench stop
2023-08-22 16:27:44,690 INFO /home/prateek/.local/bin/bench --help
2023-08-22 16:28:26,114 INFO /home/prateek/.local/bin/bench restart
2023-08-22 16:28:26,120 WARNING restart failed: Couldn't find supervisorctl in PATH
2023-08-22 16:31:20,058 INFO /home/prateek/.local/bin/bench start
2023-08-22 16:36:21,569 INFO /home/prateek/.local/bin/bench start
2023-08-22 16:36:21,865 INFO /home/prateek/.local/bin/bench serve --port 8001
2023-08-22 16:36:21,889 INFO /home/prateek/.local/bin/bench watch
2023-08-22 16:36:21,892 INFO /home/prateek/.local/bin/bench schedule
2023-08-22 16:36:21,978 INFO /home/prateek/.local/bin/bench worker
2023-08-22 17:12:43,919 INFO /home/prateek/.local/bin/bench start
2023-08-22 17:12:44,270 INFO /home/prateek/.local/bin/bench watch
2023-08-22 17:12:44,296 INFO /home/prateek/.local/bin/bench worker
2023-08-22 17:12:44,326 INFO /home/prateek/.local/bin/bench serve --port 8001
2023-08-22 17:12:44,347 INFO /home/prateek/.local/bin/bench schedule
2023-08-22 17:33:22,634 INFO /home/prateek/.local/bin/bench start
2023-08-22 17:33:22,955 INFO /home/prateek/.local/bin/bench serve --port 8001
2023-08-22 17:33:23,014 INFO /home/prateek/.local/bin/bench worker
2023-08-22 17:33:23,064 INFO /home/prateek/.local/bin/bench watch
2023-08-22 17:33:23,071 INFO /home/prateek/.local/bin/bench schedule
2023-08-22 17:34:06,387 INFO /home/prateek/.local/bin/bench pip install jedi==0.17.2 pygls==0.10.2
2023-08-22 17:40:03,306 INFO /home/prateek/.local/bin/bench start
2023-08-22 17:40:03,634 INFO /home/prateek/.local/bin/bench schedule
2023-08-22 17:40:03,640 INFO /home/prateek/.local/bin/bench worker
2023-08-22 17:40:03,669 INFO /home/prateek/.local/bin/bench serve --port 8001
2023-08-22 17:40:03,693 INFO /home/prateek/.local/bin/bench watch
2023-08-22 17:41:18,263 INFO /home/prateek/.local/bin/bench start
2023-08-22 17:41:18,583 INFO /home/prateek/.local/bin/bench worker
2023-08-22 17:41:18,623 INFO /home/prateek/.local/bin/bench watch
2023-08-22 17:41:18,641 INFO /home/prateek/.local/bin/bench serve --port 8001
2023-08-22 17:41:18,758 INFO /home/prateek/.local/bin/bench schedule
2023-08-22 17:47:42,719 INFO /home/prateek/.local/bin/bench start
2023-08-22 17:48:31,902 INFO /home/prateek/.local/bin/bench start
2023-08-22 17:51:41,789 INFO /home/prateek/.local/bin/bench start
2023-08-22 17:51:42,098 INFO /home/prateek/.local/bin/bench serve --port 8001
2023-08-22 17:51:42,135 INFO /home/prateek/.local/bin/bench schedule
2023-08-22 17:51:42,172 INFO /home/prateek/.local/bin/bench watch
2023-08-22 17:51:42,229 INFO /home/prateek/.local/bin/bench worker
2023-08-22 18:00:02,001 INFO /home/prateek/.local/bin/bench --verbose --site all backup
2023-08-22 18:27:02,944 INFO /home/prateek/.local/bin/bench start
2023-08-22 18:28:11,034 INFO /home/prateek/.local/bin/bench start
2023-08-22 18:28:11,338 INFO /home/prateek/.local/bin/bench serve --port 8001
2023-08-22 18:28:11,354 INFO /home/prateek/.local/bin/bench schedule
2023-08-22 18:28:11,402 INFO /home/prateek/.local/bin/bench watch
2023-08-22 18:28:11,428 INFO /home/prateek/.local/bin/bench worker
2023-08-22 18:29:57,882 INFO /home/prateek/.local/bin/bench start
2023-08-22 18:29:58,227 INFO /home/prateek/.local/bin/bench serve --port 8001
2023-08-22 18:29:58,273 INFO /home/prateek/.local/bin/bench watch
2023-08-22 18:29:58,286 INFO /home/prateek/.local/bin/bench worker
2023-08-22 18:29:58,290 INFO /home/prateek/.local/bin/bench schedule
2023-08-22 18:31:14,295 INFO /home/prateek/.local/bin/bench debug
2023-08-23 12:00:01,655 INFO /home/prateek/.local/bin/bench --verbose --site all backup
2023-08-23 14:40:04,856 INFO /home/prateek/.local/bin/bench start
2023-08-23 14:40:05,361 INFO /home/prateek/.local/bin/bench serve --port 8001
2023-08-23 14:40:05,415 INFO /home/prateek/.local/bin/bench worker
2023-08-23 14:40:05,428 INFO /home/prateek/.local/bin/bench watch
2023-08-23 14:40:05,430 INFO /home/prateek/.local/bin/bench schedule
2023-08-23 18:00:01,540 INFO /home/prateek/.local/bin/bench --verbose --site all backup
2023-08-23 18:35:39,658 INFO /home/prateek/.local/bin/bench start
2023-08-23 18:36:19,218 INFO /home/prateek/.local/bin/bench start
2023-08-23 18:36:19,561 INFO /home/prateek/.local/bin/bench serve --port 8001
2023-08-23 18:36:19,565 INFO /home/prateek/.local/bin/bench watch
2023-08-23 18:36:19,580 INFO /home/prateek/.local/bin/bench worker
2023-08-23 18:36:19,587 INFO /home/prateek/.local/bin/bench schedule
2023-08-23 18:36:31,875 INFO /home/prateek/.local/bin/bench start
2023-08-23 18:36:32,195 INFO /home/prateek/.local/bin/bench serve --port 8001
2023-08-23 18:36:32,242 INFO /home/prateek/.local/bin/bench worker
2023-08-23 18:36:32,272 INFO /home/prateek/.local/bin/bench watch
2023-08-23 18:36:32,287 INFO /home/prateek/.local/bin/bench schedule
2023-08-24 10:51:19,455 INFO /home/prateek/.local/bin/bench start
2023-08-24 10:51:19,896 INFO /home/prateek/.local/bin/bench serve --port 8001
2023-08-24 10:51:19,930 INFO /home/prateek/.local/bin/bench watch
2023-08-24 10:51:19,939 INFO /home/prateek/.local/bin/bench schedule
2023-08-24 10:51:19,949 INFO /home/prateek/.local/bin/bench worker
2023-08-24 12:00:01,853 INFO /home/prateek/.local/bin/bench --verbose --site all backup
2023-08-24 12:33:40,566 INFO /home/prateek/.local/bin/bench --site my-site.local set-config developer_mode 1
2023-08-24 12:34:07,360 INFO /home/prateek/.local/bin/bench start
2023-08-24 12:35:03,449 INFO /home/prateek/.local/bin/bench start
2023-08-24 12:35:03,850 INFO /home/prateek/.local/bin/bench serve --port 8001
2023-08-24 12:35:03,979 INFO /home/prateek/.local/bin/bench watch
2023-08-24 12:35:03,982 INFO /home/prateek/.local/bin/bench schedule
2023-08-24 12:35:03,993 INFO /home/prateek/.local/bin/bench worker
2023-08-24 12:35:40,232 INFO /home/prateek/.local/bin/bench start
2023-08-24 12:35:40,548 INFO /home/prateek/.local/bin/bench worker
2023-08-24 12:35:40,648 INFO /home/prateek/.local/bin/bench watch
2023-08-24 12:35:40,660 INFO /home/prateek/.local/bin/bench serve --port 8001
2023-08-24 12:35:40,676 INFO /home/prateek/.local/bin/bench schedule
